{
    "preset": "laravel",
    "rules": {
      "not_operator_with_successor_space": false,
        "curly_braces_position": {
            "functions_opening_brace": "same_line",
            "classes_opening_brace": "same_line"
        }
    }
}